"quantityMinimumPromotion";"is_notification";"unit";"isAds";"description";"title";"totalValue";"preco";"images";"relevance";"price_old";"department";"url";"isWeightVariable";"brandUrl";"weight";"image";"quantity";"isDelivery";"subCategoryUrl";"imageFull";"idLojaProduto";"excerpt";"discount";"ads";"isRemoval";"priceExclusive";"prices";"subCategory";"isRupture";"idProduct";"observableType";"departmentUrl";"idSubCategory";"video";"format";"idDepartament";"idCategory";"category";"imageError";"categoryUrl";"is_favorite";"isSale";"quantityStock";"dt_preco";"brand"
"0";"False";"1";"False";"";"Shark";"0.0";"4.29";"[{'id': 0, 'img': '//img.sitemercado.com.br/produtos/e902237675884f57e8c4ea72aa583785053cfc7ea8cfb7e2ea1d06d9e64305d5_full.jpg', 'thumb': '//img.sitemercado.com.br/produtos/e902237675884f57e8c4ea72aa583785053cfc7ea8cfb7e2ea1d06d9e64305d5_mini.jpg'}]";"0";"0.0";"Bebidas";"energetico-shark-energy-drink-lata-250ml";"False";"shark";"250ml";"//img.sitemercado.com.br/produtos/e902237675884f57e8c4ea72aa583785053cfc7ea8cfb7e2ea1d06d9e64305d5_mini.jpg";"0";"True";"energetico";"//img.sitemercado.com.br/produtos/e902237675884f57e8c4ea72aa583785053cfc7ea8cfb7e2ea1d06d9e64305d5_full.jpg";"7827791";"Energético Shark Energy Drink Lata 250Ml";"";"";"True";"False";"[{'unit': 1, 'price': 4.29, 'quantity': 0, 'quantityStart': 0, 'quantityVariable': 0}]";"Energético";"False";"132957";"0";"bebidas";"126";"";"0";"4";"21";"Isotônicos e Energéticos";"//img.sitemercado.com.br/departamentos/bebidas_ind.jpg";"isotonicos-e-energeticos";"False";"True";"731";"2019-02-23";"Shark"
"0";"False";"1";"False";"";"Red Bull";"0.0";"6.99";"[{'id': 0, 'img': '//img.sitemercado.com.br/produtos/6511274c3c4ec1d7881791d9439af8ec6e510bea90e36acc2e01b74ae4ab1638_full.jpg', 'thumb': '//img.sitemercado.com.br/produtos/6511274c3c4ec1d7881791d9439af8ec6e510bea90e36acc2e01b74ae4ab1638_mini.jpg'}]";"1";"0.0";"Bebidas";"energetico-red-bull-red-edition-lata-250ml";"False";"red-bull";"250ml";"//img.sitemercado.com.br/produtos/6511274c3c4ec1d7881791d9439af8ec6e510bea90e36acc2e01b74ae4ab1638_mini.jpg";"0";"True";"energetico";"//img.sitemercado.com.br/produtos/6511274c3c4ec1d7881791d9439af8ec6e510bea90e36acc2e01b74ae4ab1638_full.jpg";"6279596";"Energético Red Bull Red Edition Lata 250Ml";"";"";"True";"False";"[{'unit': 1, 'price': 6.99, 'quantity': 0, 'quantityStart': 0, 'quantityVariable': 0}]";"Energético";"False";"10926";"0";"bebidas";"126";"";"0";"4";"21";"Isotônicos e Energéticos";"//img.sitemercado.com.br/departamentos/bebidas_ind.jpg";"isotonicos-e-energeticos";"False";"True";"21";"2019-02-23";"Red Bull"
"0";"False";"1";"False";"";"Red Bull";"0.0";"6.99";"[{'id': 0, 'img': '//img.sitemercado.com.br/produtos/0452cd3e424b1d7ccf3017187c5b37c7b8b2b35f7d115bf151de7c19aaf88247_full.jpg', 'thumb': '//img.sitemercado.com.br/produtos/0452cd3e424b1d7ccf3017187c5b37c7b8b2b35f7d115bf151de7c19aaf88247_mini.jpg'}]";"2";"0.0";"Bebidas";"energetico-red-bull-summer-edition-coco-acai-lata-250ml";"False";"red-bull";"250ml";"//img.sitemercado.com.br/produtos/0452cd3e424b1d7ccf3017187c5b37c7b8b2b35f7d115bf151de7c19aaf88247_mini.jpg";"0";"True";"energetico";"//img.sitemercado.com.br/produtos/0452cd3e424b1d7ccf3017187c5b37c7b8b2b35f7d115bf151de7c19aaf88247_full.jpg";"17758711";"Energético Red Bull Summer Edition Coco Açaí Lata 250Ml";"";"";"True";"False";"[{'unit': 1, 'price': 6.99, 'quantity': 0, 'quantityStart': 0, 'quantityVariable': 0}]";"Energético";"False";"207892";"0";"bebidas";"126";"";"0";"4";"21";"Isotônicos e Energéticos";"//img.sitemercado.com.br/departamentos/bebidas_ind.jpg";"isotonicos-e-energeticos";"False";"True";"5";"2019-02-23";"Red Bull"
"0";"False";"1";"False";"";"Red Bull";"0.0";"6.99";"[{'id': 0, 'img': '//img.sitemercado.com.br/produtos/4e92aa2ae2e628890f95cdf73edb3f0d73a5e30370746dc242df129125c73573_full.jpg', 'thumb': '//img.sitemercado.com.br/produtos/4e92aa2ae2e628890f95cdf73edb3f0d73a5e30370746dc242df129125c73573_mini.jpg'}]";"3";"0.0";"Bebidas";"energetico-red-bull-the-summer-edition-acai-lata-250ml";"False";"red-bull";"250ml";"//img.sitemercado.com.br/produtos/4e92aa2ae2e628890f95cdf73edb3f0d73a5e30370746dc242df129125c73573_mini.jpg";"0";"True";"energetico";"//img.sitemercado.com.br/produtos/4e92aa2ae2e628890f95cdf73edb3f0d73a5e30370746dc242df129125c73573_full.jpg";"17758710";"Energético Red Bull The Summer Edition Açaí Lata 250Ml";"";"";"True";"False";"[{'unit': 1, 'price': 6.99, 'quantity': 0, 'quantityStart': 0, 'quantityVariable': 0}]";"Energético";"False";"122520";"0";"bebidas";"126";"";"0";"4";"21";"Isotônicos e Energéticos";"//img.sitemercado.com.br/departamentos/bebidas_ind.jpg";"isotonicos-e-energeticos";"False";"True";"16";"2019-02-23";"Red Bull"
"0";"False";"1";"False";"";"Gatorade";"0.0";"3.49";"[{'id': 0, 'img': '//img.sitemercado.com.br/produtos/042b276df407b5128bf29422e43c5964535ac2192d30a8dd54840bb9ee26e171_full.jpg', 'thumb': '//img.sitemercado.com.br/produtos/042b276df407b5128bf29422e43c5964535ac2192d30a8dd54840bb9ee26e171_mini.jpg'}]";"4";"3.99";"Bebidas";"isotonico-gatorade-tangerina-garrafa-500ml";"False";"gatorade";"500ml";"//img.sitemercado.com.br/produtos/042b276df407b5128bf29422e43c5964535ac2192d30a8dd54840bb9ee26e171_mini.jpg";"0";"True";"isotonicos-e-hidrotonicos";"//img.sitemercado.com.br/produtos/042b276df407b5128bf29422e43c5964535ac2192d30a8dd54840bb9ee26e171_full.jpg";"6196242";"Isotônico Gatorade Tangerina Garrafa 500Ml";"{'type': 0, 'value': 12}";"";"True";"False";"[{'unit': 1, 'price': 3.49, 'quantity': 0, 'quantityStart': 0, 'quantityVariable': 0}]";"Isotonicos e Hidrotonicos";"False";"365";"0";"bebidas";"158";"";"0";"4";"21";"Isotônicos e Energéticos";"//img.sitemercado.com.br/departamentos/bebidas_ind.jpg";"isotonicos-e-energeticos";"False";"True";"252";"2019-02-23";"Gatorade"
"0";"False";"1";"False";"";"Fusion";"0.0";"9.39";"[{'id': 0, 'img': '//img.sitemercado.com.br/produtos/4c2d772f8a6ee7d077162f750b277805bbcffcfd5e9027813633594bf4ba7fab_full.jpg', 'thumb': '//img.sitemercado.com.br/produtos/4c2d772f8a6ee7d077162f750b277805bbcffcfd5e9027813633594bf4ba7fab_mini.jpg'}]";"5";"0.0";"Bebidas";"energetico-fusion-energy-drink-garrafa-1l";"False";"fusion";"1 Litro";"//img.sitemercado.com.br/produtos/4c2d772f8a6ee7d077162f750b277805bbcffcfd5e9027813633594bf4ba7fab_mini.jpg";"0";"True";"energetico";"//img.sitemercado.com.br/produtos/4c2d772f8a6ee7d077162f750b277805bbcffcfd5e9027813633594bf4ba7fab_full.jpg";"6197291";"Energético Fusion Energy Drink Garrafa 1L";"";"";"True";"False";"[{'unit': 1, 'price': 9.39, 'quantity': 0, 'quantityStart': 0, 'quantityVariable': 0}]";"Energético";"False";"11063";"0";"bebidas";"126";"";"0";"4";"21";"Isotônicos e Energéticos";"//img.sitemercado.com.br/departamentos/bebidas_ind.jpg";"isotonicos-e-energeticos";"False";"True";"54";"2019-02-23";"Fusion"
"0";"False";"1";"False";"";"I9";"0.0";"3.39";"[{'id': 0, 'img': '//img.sitemercado.com.br/produtos/d12d9b48d0f1ed5e4ba5f5f239b8410d0ff2adf6ce6cac7931628906e6068ac3_full.jpg', 'thumb': '//img.sitemercado.com.br/produtos/d12d9b48d0f1ed5e4ba5f5f239b8410d0ff2adf6ce6cac7931628906e6068ac3_mini.jpg'}]";"6";"0.0";"Bebidas";"hidrotonico-i9-tangerina-garrafa-500ml";"False";"i9";"500ml";"//img.sitemercado.com.br/produtos/d12d9b48d0f1ed5e4ba5f5f239b8410d0ff2adf6ce6cac7931628906e6068ac3_mini.jpg";"0";"True";"isotonicos-e-hidrotonicos";"//img.sitemercado.com.br/produtos/d12d9b48d0f1ed5e4ba5f5f239b8410d0ff2adf6ce6cac7931628906e6068ac3_full.jpg";"6197293";"Hidrotonico I9 Tangerina Garrafa 500Ml";"";"";"True";"False";"[{'unit': 1, 'price': 3.39, 'quantity': 0, 'quantityStart': 0, 'quantityVariable': 0}]";"Isotonicos e Hidrotonicos";"False";"11080";"0";"bebidas";"158";"";"0";"4";"21";"Isotônicos e Energéticos";"//img.sitemercado.com.br/departamentos/bebidas_ind.jpg";"isotonicos-e-energeticos";"False";"True";"64";"2019-02-23";"I9"
"0";"False";"1";"False";"";"Gatorade";"0.0";"3.49";"[{'id': 0, 'img': '//img.sitemercado.com.br/produtos/594b5a964cc2038ef6b2f63107af8fa4467d21d667c6758be304a0b8d6a5fd23_hero_full.jpg', 'thumb': '//img.sitemercado.com.br/produtos/594b5a964cc2038ef6b2f63107af8fa4467d21d667c6758be304a0b8d6a5fd23_hero_mini.jpg'}, {'id': 0, 'img': '//img.sitemercado.com.br/produtos/177e5977afc4510c4f3cecb1ad499a43e55e61e589532097327fb9b2a83c8118_full.jpg', 'thumb': '//img.sitemercado.com.br/produtos/177e5977afc4510c4f3cecb1ad499a43e55e61e589532097327fb9b2a83c8118_mini.jpg'}]";"7";"3.99";"Bebidas";"isotonico-gatorade-morango-maracuja-500ml";"False";"gatorade";"500ml";"//img.sitemercado.com.br/produtos/594b5a964cc2038ef6b2f63107af8fa4467d21d667c6758be304a0b8d6a5fd23_hero_mini.jpg";"0";"True";"isotonicos-e-hidrotonicos";"//img.sitemercado.com.br/produtos/594b5a964cc2038ef6b2f63107af8fa4467d21d667c6758be304a0b8d6a5fd23_hero_full.jpg";"6197272";"Isotônico Gatorade Morango Maracujá 500Ml";"{'type': 0, 'value': 12}";"";"True";"False";"[{'unit': 1, 'price': 3.49, 'quantity': 0, 'quantityStart': 0, 'quantityVariable': 0}]";"Isotonicos e Hidrotonicos";"False";"10876";"0";"bebidas";"158";"";"0";"4";"21";"Isotônicos e Energéticos";"//img.sitemercado.com.br/departamentos/bebidas_ind.jpg";"isotonicos-e-energeticos";"False";"True";"258";"2019-02-23";"Gatorade"
"0";"False";"1";"False";"";"I9";"0.0";"3.39";"[{'id': 0, 'img': '//img.sitemercado.com.br/produtos/87475bd1d1a827eb69e7b99d90a8df09f75783a654a004375f8f42428b63ea0b_full.jpg', 'thumb': '//img.sitemercado.com.br/produtos/87475bd1d1a827eb69e7b99d90a8df09f75783a654a004375f8f42428b63ea0b_mini.jpg'}]";"8";"0.0";"Bebidas";"hidrotonico-i9-limao-garrafa-500ml";"False";"i9";"500ml";"//img.sitemercado.com.br/produtos/87475bd1d1a827eb69e7b99d90a8df09f75783a654a004375f8f42428b63ea0b_mini.jpg";"0";"True";"isotonicos-e-hidrotonicos";"//img.sitemercado.com.br/produtos/87475bd1d1a827eb69e7b99d90a8df09f75783a654a004375f8f42428b63ea0b_full.jpg";"6197295";"Hidrotonico I9 Limão Garrafa 500Ml";"";"";"True";"False";"[{'unit': 1, 'price': 3.39, 'quantity': 0, 'quantityStart': 0, 'quantityVariable': 0}]";"Isotonicos e Hidrotonicos";"False";"11083";"0";"bebidas";"158";"";"0";"4";"21";"Isotônicos e Energéticos";"//img.sitemercado.com.br/departamentos/bebidas_ind.jpg";"isotonicos-e-energeticos";"False";"True";"62";"2019-02-23";"I9"
"0";"False";"1";"False";"";"Yakult";"0.0";"3.19";"[{'id': 0, 'img': '//img.sitemercado.com.br/produtos/909b19e50235622641d81660f6c09759ff4d9941ab786788beebe6794cad6f49_full.jpg', 'thumb': '//img.sitemercado.com.br/produtos/909b19e50235622641d81660f6c09759ff4d9941ab786788beebe6794cad6f49_mini.jpg'}]";"9";"0.0";"Bebidas";"isotonico-suplemento-de-vitaminas-taff-man-e-yakult-frasco-110ml";"False";"yakult";"110ml";"//img.sitemercado.com.br/produtos/909b19e50235622641d81660f6c09759ff4d9941ab786788beebe6794cad6f49_mini.jpg";"0";"True";"isotonicos-e-hidrotonicos";"//img.sitemercado.com.br/produtos/909b19e50235622641d81660f6c09759ff4d9941ab786788beebe6794cad6f49_full.jpg";"6281927";"Isotonico / Suplemento de Vitaminas Taff Man e Yakult Frasco 110Ml";"";"";"True";"False";"[{'unit': 1, 'price': 3.19, 'quantity': 0, 'quantityStart': 0, 'quantityVariable': 0}]";"Isotonicos e Hidrotonicos";"False";"8809";"0";"bebidas";"158";"";"0";"4";"21";"Isotônicos e Energéticos";"//img.sitemercado.com.br/departamentos/bebidas_ind.jpg";"isotonicos-e-energeticos";"False";"True";"110";"2019-02-23";"Yakult"
"0";"False";"1";"False";"";"Gatorade";"0.0";"3.49";"[{'id': 0, 'img': '//img.sitemercado.com.br/produtos/2dac1ac594383c16e7e405a209324f29be7c5898482d5ea6d44a31d289989a1c_hero_full.jpg', 'thumb': '//img.sitemercado.com.br/produtos/2dac1ac594383c16e7e405a209324f29be7c5898482d5ea6d44a31d289989a1c_hero_mini.jpg'}, {'id': 0, 'img': '//img.sitemercado.com.br/produtos/c18da096c4c10b567ae1f4f4185f06f973532e9e6500f003874e85cf35ec3c11_full.jpg', 'thumb': '//img.sitemercado.com.br/produtos/c18da096c4c10b567ae1f4f4185f06f973532e9e6500f003874e85cf35ec3c11_mini.jpg'}]";"10";"3.99";"Bebidas";"isotonico-gatorade-limao-500ml";"False";"gatorade";"500ml";"//img.sitemercado.com.br/produtos/2dac1ac594383c16e7e405a209324f29be7c5898482d5ea6d44a31d289989a1c_hero_mini.jpg";"0";"True";"isotonicos-e-hidrotonicos";"//img.sitemercado.com.br/produtos/2dac1ac594383c16e7e405a209324f29be7c5898482d5ea6d44a31d289989a1c_hero_full.jpg";"6197269";"Isotônico Gatorade Limão 500Ml";"{'type': 0, 'value': 12}";"";"True";"False";"[{'unit': 1, 'price': 3.49, 'quantity': 0, 'quantityStart': 0, 'quantityVariable': 0}]";"Isotonicos e Hidrotonicos";"False";"10870";"0";"bebidas";"158";"";"0";"4";"21";"Isotônicos e Energéticos";"//img.sitemercado.com.br/departamentos/bebidas_ind.jpg";"isotonicos-e-energeticos";"False";"True";"400";"2019-02-23";"Gatorade"
"0";"False";"1";"False";"";"Gatorade";"0.0";"3.49";"[{'id': 0, 'img': '//img.sitemercado.com.br/produtos/1080feb211e2a15a9b357290c729627c216e4e3122c36431ca7649cb48979146_hero_full.jpg', 'thumb': '//img.sitemercado.com.br/produtos/1080feb211e2a15a9b357290c729627c216e4e3122c36431ca7649cb48979146_hero_mini.jpg'}, {'id': 0, 'img': '//img.sitemercado.com.br/produtos/4815ab7990fe70e68f86e7f922998d4bdea8b9458ba2972e63e652201c264490_full.jpg', 'thumb': '//img.sitemercado.com.br/produtos/4815ab7990fe70e68f86e7f922998d4bdea8b9458ba2972e63e652201c264490_mini.jpg'}]";"11";"3.99";"Bebidas";"isotonico-gatorade-uva-500ml";"False";"gatorade";"500ml";"//img.sitemercado.com.br/produtos/1080feb211e2a15a9b357290c729627c216e4e3122c36431ca7649cb48979146_hero_mini.jpg";"0";"True";"isotonicos-e-hidrotonicos";"//img.sitemercado.com.br/produtos/1080feb211e2a15a9b357290c729627c216e4e3122c36431ca7649cb48979146_hero_full.jpg";"6197273";"Isotônico Gatorade Uva 500Ml";"{'type': 0, 'value': 12}";"";"True";"False";"[{'unit': 1, 'price': 3.49, 'quantity': 0, 'quantityStart': 0, 'quantityVariable': 0}]";"Isotonicos e Hidrotonicos";"False";"10877";"0";"bebidas";"158";"";"0";"4";"21";"Isotônicos e Energéticos";"//img.sitemercado.com.br/departamentos/bebidas_ind.jpg";"isotonicos-e-energeticos";"False";"True";"302";"2019-02-23";"Gatorade"
"0";"False";"1";"False";"";"Powerade";"0.0";"3.79";"[{'id': 0, 'img': '//img.sitemercado.com.br/produtos/dde04d5365538e9c8715cee3d15f4962128bac5956e2403af084f8a2cc05c56e_hero_full.jpg', 'thumb': '//img.sitemercado.com.br/produtos/dde04d5365538e9c8715cee3d15f4962128bac5956e2403af084f8a2cc05c56e_hero_mini.jpg'}, {'id': 0, 'img': '//img.sitemercado.com.br/produtos/dde04d5365538e9c8715cee3d15f4962128bac5956e2403af084f8a2cc05c56e_full.jpg', 'thumb': '//img.sitemercado.com.br/produtos/dde04d5365538e9c8715cee3d15f4962128bac5956e2403af084f8a2cc05c56e_mini.jpg'}]";"12";"0.0";"Bebidas";"isotonico-powerade-mountain-blast-garrafa-500ml";"False";"powerade";"500ml";"//img.sitemercado.com.br/produtos/dde04d5365538e9c8715cee3d15f4962128bac5956e2403af084f8a2cc05c56e_hero_mini.jpg";"0";"True";"isotonicos-e-hidrotonicos";"//img.sitemercado.com.br/produtos/dde04d5365538e9c8715cee3d15f4962128bac5956e2403af084f8a2cc05c56e_hero_full.jpg";"6197292";"Isotônico Powerade Mountain Blast Garrafa 500Ml";"";"";"True";"False";"[{'unit': 1, 'price': 3.79, 'quantity': 0, 'quantityStart': 0, 'quantityVariable': 0}]";"Isotonicos e Hidrotonicos";"False";"11078";"0";"bebidas";"158";"";"0";"4";"21";"Isotônicos e Energéticos";"//img.sitemercado.com.br/departamentos/bebidas_ind.jpg";"isotonicos-e-energeticos";"False";"True";"83";"2019-02-23";"Powerade"
"0";"False";"1";"False";"";"Yakult";"0.0";"3.19";"[{'id': 0, 'img': '//img.sitemercado.com.br/produtos/38699d3d1811e376b92b2a0cf3e776dbed2a0fd8180c2ab65c9a109e14882763_full.jpg', 'thumb': '//img.sitemercado.com.br/produtos/38699d3d1811e376b92b2a0cf3e776dbed2a0fd8180c2ab65c9a109e14882763_mini.jpg'}]";"13";"0.0";"Bebidas";"hiline-f-yakult-frasco-100ml";"False";"yakult";"100ml";"//img.sitemercado.com.br/produtos/38699d3d1811e376b92b2a0cf3e776dbed2a0fd8180c2ab65c9a109e14882763_mini.jpg";"0";"True";"isotonicos-e-hidrotonicos";"//img.sitemercado.com.br/produtos/38699d3d1811e376b92b2a0cf3e776dbed2a0fd8180c2ab65c9a109e14882763_full.jpg";"6283311";"Hiline F Yakult Frasco 100Ml";"";"";"True";"False";"[{'unit': 1, 'price': 3.19, 'quantity': 0, 'quantityStart': 0, 'quantityVariable': 0}]";"Isotonicos e Hidrotonicos";"False";"9045";"0";"bebidas";"158";"";"0";"4";"21";"Isotônicos e Energéticos";"//img.sitemercado.com.br/departamentos/bebidas_ind.jpg";"isotonicos-e-energeticos";"False";"True";"23";"2019-02-23";"Yakult"
"0";"False";"1";"False";"";"Gatorade";"0.0";"3.49";"[{'id': 0, 'img': '//img.sitemercado.com.br/produtos/a65afa2f08ac345eb98be69bf6833f86fbb45bbfbe370200f4523c74d351a777_hero_full.jpg', 'thumb': '//img.sitemercado.com.br/produtos/a65afa2f08ac345eb98be69bf6833f86fbb45bbfbe370200f4523c74d351a777_hero_mini.jpg'}, {'id': 0, 'img': '//img.sitemercado.com.br/produtos/a65afa2f08ac345eb98be69bf6833f86fbb45bbfbe370200f4523c74d351a777_full.jpg', 'thumb': '//img.sitemercado.com.br/produtos/a65afa2f08ac345eb98be69bf6833f86fbb45bbfbe370200f4523c74d351a777_mini.jpg'}]";"14";"3.99";"Bebidas";"isotonico-gatorade-frutas-citricas-garrafa-500ml";"False";"gatorade";"500ml";"//img.sitemercado.com.br/produtos/a65afa2f08ac345eb98be69bf6833f86fbb45bbfbe370200f4523c74d351a777_hero_mini.jpg";"0";"True";"isotonicos-e-hidrotonicos";"//img.sitemercado.com.br/produtos/a65afa2f08ac345eb98be69bf6833f86fbb45bbfbe370200f4523c74d351a777_hero_full.jpg";"6197270";"Isotônico Gatorade Frutas Cítricas Garrafa 500Ml";"{'type': 0, 'value': 12}";"";"True";"False";"[{'unit': 1, 'price': 3.49, 'quantity': 0, 'quantityStart': 0, 'quantityVariable': 0}]";"Isotonicos e Hidrotonicos";"False";"10873";"0";"bebidas";"158";"";"0";"4";"21";"Isotônicos e Energéticos";"//img.sitemercado.com.br/departamentos/bebidas_ind.jpg";"isotonicos-e-energeticos";"False";"True";"245";"2019-02-23";"Gatorade"
"0";"False";"1";"False";"";"Powerade";"0.0";"3.79";"[{'id': 0, 'img': '//img.sitemercado.com.br/produtos/b516d33c5a28775a897df6d30a3932b93bafb516aa779762d6b9a6abe16945ef_hero_full.jpg', 'thumb': '//img.sitemercado.com.br/produtos/b516d33c5a28775a897df6d30a3932b93bafb516aa779762d6b9a6abe16945ef_hero_mini.jpg'}, {'id': 0, 'img': '//img.sitemercado.com.br/produtos/b516d33c5a28775a897df6d30a3932b93bafb516aa779762d6b9a6abe16945ef_full.jpg', 'thumb': '//img.sitemercado.com.br/produtos/b516d33c5a28775a897df6d30a3932b93bafb516aa779762d6b9a6abe16945ef_mini.jpg'}]";"15";"0.0";"Bebidas";"isotonico-powerade-uva-garrafa-500ml";"False";"powerade";"500ml";"//img.sitemercado.com.br/produtos/b516d33c5a28775a897df6d30a3932b93bafb516aa779762d6b9a6abe16945ef_hero_mini.jpg";"0";"True";"isotonicos-e-hidrotonicos";"//img.sitemercado.com.br/produtos/b516d33c5a28775a897df6d30a3932b93bafb516aa779762d6b9a6abe16945ef_hero_full.jpg";"6197294";"Isotônico Powerade Uva Garrafa 500Ml";"";"";"True";"False";"[{'unit': 1, 'price': 3.79, 'quantity': 0, 'quantityStart': 0, 'quantityVariable': 0}]";"Isotonicos e Hidrotonicos";"False";"11081";"0";"bebidas";"158";"";"0";"4";"21";"Isotônicos e Energéticos";"//img.sitemercado.com.br/departamentos/bebidas_ind.jpg";"isotonicos-e-energeticos";"False";"True";"44";"2019-02-23";"Powerade"
"0";"False";"1";"False";"";"Red Bull";"0.0";"11.59";"[{'id': 0, 'img': '//img.sitemercado.com.br/produtos/6b8bd51f839319ae7b3d45ecbfb58f8f51a4e9fd337e06eff3a5c34a698ad573_full.jpg', 'thumb': '//img.sitemercado.com.br/produtos/6b8bd51f839319ae7b3d45ecbfb58f8f51a4e9fd337e06eff3a5c34a698ad573_mini.jpg'}]";"16";"0.0";"Bebidas";"energetico-red-bull-lata-473ml";"False";"red-bull";"473ml";"//img.sitemercado.com.br/produtos/6b8bd51f839319ae7b3d45ecbfb58f8f51a4e9fd337e06eff3a5c34a698ad573_mini.jpg";"0";"True";"energetico";"//img.sitemercado.com.br/produtos/6b8bd51f839319ae7b3d45ecbfb58f8f51a4e9fd337e06eff3a5c34a698ad573_full.jpg";"6279982";"Energético Red Bull Lata 473Ml";"";"";"True";"False";"[{'unit': 1, 'price': 11.59, 'quantity': 0, 'quantityStart': 0, 'quantityVariable': 0}]";"Energético";"False";"10882";"0";"bebidas";"126";"";"0";"4";"21";"Isotônicos e Energéticos";"//img.sitemercado.com.br/departamentos/bebidas_ind.jpg";"isotonicos-e-energeticos";"False";"True";"643";"2019-02-23";"Red Bull"
"0";"False";"1";"False";"";"Red Bull";"0.0";"6.99";"[{'id': 0, 'img': '//img.sitemercado.com.br/produtos/074b39edc2cc8e475be948ba70f9425d964f51213d64c5cf083c87866260cd2e_full.jpg', 'thumb': '//img.sitemercado.com.br/produtos/074b39edc2cc8e475be948ba70f9425d964f51213d64c5cf083c87866260cd2e_mini.jpg'}]";"17";"0.0";"Bebidas";"energetico-red-bull-sugar-free-lata-250ml";"False";"red-bull";"250ml";"//img.sitemercado.com.br/produtos/074b39edc2cc8e475be948ba70f9425d964f51213d64c5cf083c87866260cd2e_mini.jpg";"0";"True";"energetico";"//img.sitemercado.com.br/produtos/074b39edc2cc8e475be948ba70f9425d964f51213d64c5cf083c87866260cd2e_full.jpg";"6278137";"Energético Red Bull Sugar Free Lata 250Ml";"";"";"True";"False";"[{'unit': 1, 'price': 6.99, 'quantity': 0, 'quantityStart': 0, 'quantityVariable': 0}]";"Energético";"False";"10929";"0";"bebidas";"126";"";"0";"4";"21";"Isotônicos e Energéticos";"//img.sitemercado.com.br/departamentos/bebidas_ind.jpg";"isotonicos-e-energeticos";"False";"True";"52";"2019-02-23";"Red Bull"
"0";"False";"1";"False";"";"Red Bull";"0.0";"6.99";"[{'id': 0, 'img': '//img.sitemercado.com.br/produtos/c8980d72eb1b2fc2bd07368682b1b9d1bdc2deb0f1bca5e79c1b9fd8ae40f64d_full.jpg', 'thumb': '//img.sitemercado.com.br/produtos/c8980d72eb1b2fc2bd07368682b1b9d1bdc2deb0f1bca5e79c1b9fd8ae40f64d_mini.jpg'}]";"18";"0.0";"Bebidas";"energetico-red-bull-energy-drink-lata-250ml";"False";"red-bull";"250ml";"//img.sitemercado.com.br/produtos/c8980d72eb1b2fc2bd07368682b1b9d1bdc2deb0f1bca5e79c1b9fd8ae40f64d_mini.jpg";"0";"True";"energetico";"//img.sitemercado.com.br/produtos/c8980d72eb1b2fc2bd07368682b1b9d1bdc2deb0f1bca5e79c1b9fd8ae40f64d_full.jpg";"6281092";"Energético Red Bull Energy Drink Lata 250Ml";"";"";"True";"False";"[{'unit': 1, 'price': 6.99, 'quantity': 0, 'quantityStart': 0, 'quantityVariable': 0}]";"Energético";"False";"10859";"0";"bebidas";"126";"";"0";"4";"21";"Isotônicos e Energéticos";"//img.sitemercado.com.br/departamentos/bebidas_ind.jpg";"isotonicos-e-energeticos";"False";"True";"1893";"2019-02-23";"Red Bull"
"0";"False";"1";"False";"";"Burn";"0.0";"3.99";"[{'id': 0, 'img': '//img.sitemercado.com.br/produtos/d6d8cce6949badec7ce80f0477b993d570d0d1f02a6c89e55ba7eb81a3331293_full.jpg', 'thumb': '//img.sitemercado.com.br/produtos/d6d8cce6949badec7ce80f0477b993d570d0d1f02a6c89e55ba7eb81a3331293_mini.jpg'}]";"19";"0.0";"Bebidas";"energetico-burn-lata-260ml";"False";"burn";"260ml";"//img.sitemercado.com.br/produtos/d6d8cce6949badec7ce80f0477b993d570d0d1f02a6c89e55ba7eb81a3331293_mini.jpg";"0";"True";"energetico";"//img.sitemercado.com.br/produtos/d6d8cce6949badec7ce80f0477b993d570d0d1f02a6c89e55ba7eb81a3331293_full.jpg";"6198452";"Energético Burn Lata 260Ml";"";"";"True";"False";"[{'unit': 1, 'price': 3.99, 'quantity': 0, 'quantityStart': 0, 'quantityVariable': 0}]";"Energético";"False";"103310";"0";"bebidas";"126";"";"0";"4";"21";"Isotônicos e Energéticos";"//img.sitemercado.com.br/departamentos/bebidas_ind.jpg";"isotonicos-e-energeticos";"False";"True";"335";"2019-02-23";"Burn"
"0";"False";"1";"False";"";"Gatorade";"0.0";"3.49";"[{'id': 0, 'img': '//img.sitemercado.com.br/produtos/dc46d87dacae55ebcf8c0661199b7bb893f3ca685cd070d3ef907c096c6f882c_hero_full.jpg', 'thumb': '//img.sitemercado.com.br/produtos/dc46d87dacae55ebcf8c0661199b7bb893f3ca685cd070d3ef907c096c6f882c_hero_mini.jpg'}, {'id': 0, 'img': '//img.sitemercado.com.br/produtos/3c52a9dac064847ecc3f0fc967dbef23933015d9d35fd15ec5e8382c6937e826_full.jpg', 'thumb': '//img.sitemercado.com.br/produtos/3c52a9dac064847ecc3f0fc967dbef23933015d9d35fd15ec5e8382c6937e826_mini.jpg'}]";"20";"3.99";"Bebidas";"isotonico-gatorade-laranja-500ml";"False";"gatorade";"500ml";"//img.sitemercado.com.br/produtos/dc46d87dacae55ebcf8c0661199b7bb893f3ca685cd070d3ef907c096c6f882c_hero_mini.jpg";"0";"True";"isotonicos-e-hidrotonicos";"//img.sitemercado.com.br/produtos/dc46d87dacae55ebcf8c0661199b7bb893f3ca685cd070d3ef907c096c6f882c_hero_full.jpg";"6197268";"Isotônico Gatorade Laranja 500Ml";"{'type': 0, 'value': 12}";"";"True";"False";"[{'unit': 1, 'price': 3.49, 'quantity': 0, 'quantityStart': 0, 'quantityVariable': 0}]";"Isotonicos e Hidrotonicos";"False";"10869";"0";"bebidas";"158";"";"0";"4";"21";"Isotônicos e Energéticos";"//img.sitemercado.com.br/departamentos/bebidas_ind.jpg";"isotonicos-e-energeticos";"False";"True";"274";"2019-02-23";"Gatorade"
"0";"False";"1";"False";"";"Monster";"0.0";"5.99";"[{'id': 0, 'img': '//img.sitemercado.com.br/produtos/5022b1e0ecd92c67c99e205314153b05b3c85c15ac0dcb0f440b661741727703_full.jpg', 'thumb': '//img.sitemercado.com.br/produtos/5022b1e0ecd92c67c99e205314153b05b3c85c15ac0dcb0f440b661741727703_mini.jpg'}]";"21";"0.0";"Bebidas";"energetico-monster-energy-lata-473ml";"False";"monster";"473ml";"//img.sitemercado.com.br/produtos/5022b1e0ecd92c67c99e205314153b05b3c85c15ac0dcb0f440b661741727703_mini.jpg";"0";"True";"energetico";"//img.sitemercado.com.br/produtos/5022b1e0ecd92c67c99e205314153b05b3c85c15ac0dcb0f440b661741727703_full.jpg";"6198174";"Energético Monster Energy Lata 473Ml";"";"";"True";"False";"[{'unit': 1, 'price': 5.99, 'quantity': 0, 'quantityStart': 0, 'quantityVariable': 0}]";"Energético";"False";"40253";"0";"bebidas";"126";"";"0";"4";"21";"Isotônicos e Energéticos";"//img.sitemercado.com.br/departamentos/bebidas_ind.jpg";"isotonicos-e-energeticos";"False";"True";"65";"2019-02-23";"Monster"
"0";"False";"1";"False";"";"I9";"0.0";"3.39";"[{'id': 0, 'img': '//img.sitemercado.com.br/produtos/90d42497b79705f0c6c10ee07678b753b7209115dd8730b1fb49d9563079eb10_full.jpg', 'thumb': '//img.sitemercado.com.br/produtos/90d42497b79705f0c6c10ee07678b753b7209115dd8730b1fb49d9563079eb10_mini.jpg'}]";"22";"0.0";"Bebidas";"hidrotonico-i9-uva-verde-garrafa-500ml";"False";"i9";"500ml";"//img.sitemercado.com.br/produtos/90d42497b79705f0c6c10ee07678b753b7209115dd8730b1fb49d9563079eb10_mini.jpg";"0";"True";"isotonicos-e-hidrotonicos";"//img.sitemercado.com.br/produtos/90d42497b79705f0c6c10ee07678b753b7209115dd8730b1fb49d9563079eb10_full.jpg";"6197298";"Hidrotonico I9 Uva Verde Garrafa 500Ml";"";"";"True";"False";"[{'unit': 1, 'price': 3.39, 'quantity': 0, 'quantityStart': 0, 'quantityVariable': 0}]";"Isotonicos e Hidrotonicos";"False";"11102";"0";"bebidas";"158";"";"0";"4";"21";"Isotônicos e Energéticos";"//img.sitemercado.com.br/departamentos/bebidas_ind.jpg";"isotonicos-e-energeticos";"False";"True";"62";"2019-02-23";"I9"
"0";"False";"1";"False";"";"Burn";"0.0";"6.99";"[{'id': 0, 'img': '//img.sitemercado.com.br/produtos/110495f98d147e5c8f86c107ebf871a57c5e51552ea1f2ca9e720654a213dabc_full.jpg', 'thumb': '//img.sitemercado.com.br/produtos/110495f98d147e5c8f86c107ebf871a57c5e51552ea1f2ca9e720654a213dabc_mini.jpg'}]";"23";"7.49";"Bebidas";"energetico-burn-garrafa-1l";"False";"burn";"1 Litro";"//img.sitemercado.com.br/produtos/110495f98d147e5c8f86c107ebf871a57c5e51552ea1f2ca9e720654a213dabc_mini.jpg";"0";"True";"energetico";"//img.sitemercado.com.br/produtos/110495f98d147e5c8f86c107ebf871a57c5e51552ea1f2ca9e720654a213dabc_full.jpg";"6198469";"Energético Burn Garrafa 1L";"{'type': 0, 'value': 6}";"";"True";"False";"[{'unit': 1, 'price': 6.99, 'quantity': 0, 'quantityStart': 0, 'quantityVariable': 0}]";"Energético";"False";"107969";"0";"bebidas";"126";"";"0";"4";"21";"Isotônicos e Energéticos";"//img.sitemercado.com.br/departamentos/bebidas_ind.jpg";"isotonicos-e-energeticos";"False";"True";"183";"2019-02-23";"Burn"
"0";"False";"1";"False";"";"Monster";"0.0";"5.99";"[{'id': 0, 'img': '//img.sitemercado.com.br/produtos/e52b42073e8b28a5dcfc6b96f8703220d803fb9e98ba772b5eeb5d5053e0157a_full.jpg', 'thumb': '//img.sitemercado.com.br/produtos/e52b42073e8b28a5dcfc6b96f8703220d803fb9e98ba772b5eeb5d5053e0157a_mini.jpg'}]";"24";"0.0";"Bebidas";"energetico-monster-ultra-lata-473ml";"False";"monster";"473ml";"//img.sitemercado.com.br/produtos/e52b42073e8b28a5dcfc6b96f8703220d803fb9e98ba772b5eeb5d5053e0157a_mini.jpg";"0";"True";"energetico";"//img.sitemercado.com.br/produtos/e52b42073e8b28a5dcfc6b96f8703220d803fb9e98ba772b5eeb5d5053e0157a_full.jpg";"8669593";"Energético Monster Ultra Lata 473Ml";"";"";"True";"False";"[{'unit': 1, 'price': 5.99, 'quantity': 0, 'quantityStart': 0, 'quantityVariable': 0}]";"Energético";"False";"63991";"0";"bebidas";"126";"";"0";"4";"21";"Isotônicos e Energéticos";"//img.sitemercado.com.br/departamentos/bebidas_ind.jpg";"isotonicos-e-energeticos";"False";"True";"303";"2019-02-23";"Monster"
"0";"False";"1";"False";"";"I9";"0.0";"3.39";"[{'id': 0, 'img': '//img.sitemercado.com.br/produtos/73cef43ed561fae2e134fff8bfe1070117713571e6b7cfee918d7a151ff88019_full.jpg', 'thumb': '//img.sitemercado.com.br/produtos/73cef43ed561fae2e134fff8bfe1070117713571e6b7cfee918d7a151ff88019_mini.jpg'}]";"25";"0.0";"Bebidas";"hidrotonicos-i9-maracuja-garrafa-500ml";"False";"i9";"500ml";"//img.sitemercado.com.br/produtos/73cef43ed561fae2e134fff8bfe1070117713571e6b7cfee918d7a151ff88019_mini.jpg";"0";"True";"isotonicos-e-hidrotonicos";"//img.sitemercado.com.br/produtos/73cef43ed561fae2e134fff8bfe1070117713571e6b7cfee918d7a151ff88019_full.jpg";"6197299";"Hidrotonicos I9 Maracujá Garrafa 500Ml";"";"";"True";"False";"[{'unit': 1, 'price': 3.39, 'quantity': 0, 'quantityStart': 0, 'quantityVariable': 0}]";"Isotonicos e Hidrotonicos";"False";"11121";"0";"bebidas";"158";"";"0";"4";"21";"Isotônicos e Energéticos";"//img.sitemercado.com.br/departamentos/bebidas_ind.jpg";"isotonicos-e-energeticos";"False";"True";"41";"2019-02-23";"I9"
"0";"False";"1";"False";"";"Monster";"0.0";"5.99";"[{'id': 0, 'img': '//img.sitemercado.com.br/produtos/a5888e80ab7d3328d5334c30b9388d55531219c398c0099532096eb22d1e4e74_full.jpg', 'thumb': '//img.sitemercado.com.br/produtos/a5888e80ab7d3328d5334c30b9388d55531219c398c0099532096eb22d1e4e74_mini.jpg'}]";"26";"0.0";"Bebidas";"energetico-monster-lo-carb-lata-473ml";"False";"monster";"473ml";"//img.sitemercado.com.br/produtos/a5888e80ab7d3328d5334c30b9388d55531219c398c0099532096eb22d1e4e74_mini.jpg";"0";"True";"energetico";"//img.sitemercado.com.br/produtos/a5888e80ab7d3328d5334c30b9388d55531219c398c0099532096eb22d1e4e74_full.jpg";"6198487";"Energético Monster Lo Carb Lata 473Ml";"";"";"True";"False";"[{'unit': 1, 'price': 5.99, 'quantity': 0, 'quantityStart': 0, 'quantityVariable': 0}]";"Energético";"False";"113398";"0";"bebidas";"126";"";"0";"4";"21";"Isotônicos e Energéticos";"//img.sitemercado.com.br/departamentos/bebidas_ind.jpg";"isotonicos-e-energeticos";"False";"True";"53";"2019-02-23";"Monster"
"0";"False";"1";"False";"";"Monster";"0.0";"5.99";"[{'id': 0, 'img': '//img.sitemercado.com.br/produtos/d240d28ad1bb52df078bd57769e1eafec68be039ab4acd6d69ceb168247fea22_full.jpg', 'thumb': '//img.sitemercado.com.br/produtos/d240d28ad1bb52df078bd57769e1eafec68be039ab4acd6d69ceb168247fea22_mini.jpg'}]";"27";"0.0";"Bebidas";"energetico-monster-khaos-lata-473ml";"False";"monster";"473ml";"//img.sitemercado.com.br/produtos/d240d28ad1bb52df078bd57769e1eafec68be039ab4acd6d69ceb168247fea22_mini.jpg";"0";"True";"energetico";"//img.sitemercado.com.br/produtos/d240d28ad1bb52df078bd57769e1eafec68be039ab4acd6d69ceb168247fea22_full.jpg";"6198382";"Energético Monster Khaos Lata 473Ml";"";"";"True";"False";"[{'unit': 1, 'price': 5.99, 'quantity': 0, 'quantityStart': 0, 'quantityVariable': 0}]";"Energético";"False";"89054";"0";"bebidas";"126";"";"0";"4";"21";"Isotônicos e Energéticos";"//img.sitemercado.com.br/departamentos/bebidas_ind.jpg";"isotonicos-e-energeticos";"False";"True";"49";"2019-02-23";"Monster"
"0";"False";"1";"False";"";"Red Bull";"0.0";"6.99";"[{'id': 0, 'img': '//img.sitemercado.com.br/produtos/b6d518a92c40198a946bb2b9e9e4c18d99e7821b56372a54d04bd9610ccea54a_full.jpg', 'thumb': '//img.sitemercado.com.br/produtos/b6d518a92c40198a946bb2b9e9e4c18d99e7821b56372a54d04bd9610ccea54a_mini.jpg'}]";"28";"0.0";"Bebidas";"energetico-red-bull-the-summer-edition-frutas-tropicais-lata-250ml";"False";"red-bull";"250ml";"//img.sitemercado.com.br/produtos/b6d518a92c40198a946bb2b9e9e4c18d99e7821b56372a54d04bd9610ccea54a_mini.jpg";"0";"True";"energetico";"//img.sitemercado.com.br/produtos/b6d518a92c40198a946bb2b9e9e4c18d99e7821b56372a54d04bd9610ccea54a_full.jpg";"6279272";"Energético Red Bull The Summer Edition Frutas Tropicais Lata 250Ml";"";"";"True";"False";"[{'unit': 1, 'price': 6.99, 'quantity': 0, 'quantityStart': 0, 'quantityVariable': 0}]";"Energético";"False";"24280";"0";"bebidas";"126";"";"0";"4";"21";"Isotônicos e Energéticos";"//img.sitemercado.com.br/departamentos/bebidas_ind.jpg";"isotonicos-e-energeticos";"False";"True";"51";"2019-02-23";"Red Bull"
"0";"False";"1";"False";"";"Red Bull";"0.0";"8.99";"[{'id': 0, 'img': '//img.sitemercado.com.br/produtos/00c9c36f3ea6be38e92ab939cc53be02f668fcab078db435d30ae0aea20035dd_full.jpg', 'thumb': '//img.sitemercado.com.br/produtos/00c9c36f3ea6be38e92ab939cc53be02f668fcab078db435d30ae0aea20035dd_mini.jpg'}]";"29";"0.0";"Bebidas";"energetico-red-bull-lata-355-ml";"False";"red-bull";"355 ml";"//img.sitemercado.com.br/produtos/00c9c36f3ea6be38e92ab939cc53be02f668fcab078db435d30ae0aea20035dd_mini.jpg";"0";"True";"energetico";"//img.sitemercado.com.br/produtos/00c9c36f3ea6be38e92ab939cc53be02f668fcab078db435d30ae0aea20035dd_full.jpg";"6276781";"Energético Red Bull Lata 355 Ml";"";"";"True";"False";"[{'unit': 1, 'price': 8.99, 'quantity': 0, 'quantityStart': 0, 'quantityVariable': 0}]";"Energético";"False";"10878";"0";"bebidas";"126";"";"0";"4";"21";"Isotônicos e Energéticos";"//img.sitemercado.com.br/departamentos/bebidas_ind.jpg";"isotonicos-e-energeticos";"False";"True";"1544";"2019-02-23";"Red Bull"
"0";"False";"1";"False";"";"Red Bull";"0.0";"6.99";"[{'id': 0, 'img': '//img.sitemercado.com.br/produtos/9098eb314c783c94a054be505e531ba22eac6a610eefee52114c507e00d714b1_full.jpg', 'thumb': '//img.sitemercado.com.br/produtos/9098eb314c783c94a054be505e531ba22eac6a610eefee52114c507e00d714b1_mini.jpg'}]";"30";"0.0";"Bebidas";"energetico-red-bull-blue-edition-lata-250ml";"False";"red-bull";"250ml";"//img.sitemercado.com.br/produtos/9098eb314c783c94a054be505e531ba22eac6a610eefee52114c507e00d714b1_mini.jpg";"0";"True";"energetico";"//img.sitemercado.com.br/produtos/9098eb314c783c94a054be505e531ba22eac6a610eefee52114c507e00d714b1_full.jpg";"6281918";"Energético Red Bull Blue Edition Lata 250Ml";"";"";"True";"False";"[{'unit': 1, 'price': 6.99, 'quantity': 0, 'quantityStart': 0, 'quantityVariable': 0}]";"Energético";"False";"11022";"0";"bebidas";"126";"";"0";"4";"21";"Isotônicos e Energéticos";"//img.sitemercado.com.br/departamentos/bebidas_ind.jpg";"isotonicos-e-energeticos";"False";"True";"17";"2019-02-23";"Red Bull"
"0";"False";"1";"False";"";"Fusion";"0.0";"5.99";"[{'id': 0, 'img': '//img.sitemercado.com.br/produtos/69eb8a67ea37db7a77b808fbfeeca1d67dfb8b8e41da7e081a329893d782e548_hero_full.jpg', 'thumb': '//img.sitemercado.com.br/produtos/69eb8a67ea37db7a77b808fbfeeca1d67dfb8b8e41da7e081a329893d782e548_hero_mini.jpg'}, {'id': 0, 'img': '//img.sitemercado.com.br/produtos/690e0b9c5ddb410ccf791cb4faaac234ab2c48b0472f03e26abf9fb25a12060c_full.jpg', 'thumb': '//img.sitemercado.com.br/produtos/690e0b9c5ddb410ccf791cb4faaac234ab2c48b0472f03e26abf9fb25a12060c_mini.jpg'}]";"31";"0.0";"Bebidas";"energetico-fusion-250ml";"False";"fusion";"250ml";"//img.sitemercado.com.br/produtos/69eb8a67ea37db7a77b808fbfeeca1d67dfb8b8e41da7e081a329893d782e548_hero_mini.jpg";"0";"True";"energetico";"//img.sitemercado.com.br/produtos/69eb8a67ea37db7a77b808fbfeeca1d67dfb8b8e41da7e081a329893d782e548_hero_full.jpg";"6197669";"Energético Fusion 250Ml";"";"";"True";"False";"[{'unit': 1, 'price': 5.99, 'quantity': 0, 'quantityStart': 0, 'quantityVariable': 0}]";"Energético";"False";"15787";"0";"bebidas";"126";"";"0";"4";"21";"Isotônicos e Energéticos";"//img.sitemercado.com.br/departamentos/bebidas_ind.jpg";"isotonicos-e-energeticos";"False";"True";"25";"2019-02-23";"Fusion"
"0";"False";"1";"False";"";"Red Horse";"0.0";"5.49";"[{'id': 0, 'img': '//img.sitemercado.com.br/produtos/6afb94cd34f461c67eaf2d2e82bcbd31a65ebdab166eba78a2d0b0d17ee4bca3_full.jpg', 'thumb': '//img.sitemercado.com.br/produtos/6afb94cd34f461c67eaf2d2e82bcbd31a65ebdab166eba78a2d0b0d17ee4bca3_mini.jpg'}]";"32";"0.0";"Bebidas";"energetico-red-horse-garrafa-1l";"False";"red-horse";"1 Litro";"//img.sitemercado.com.br/produtos/6afb94cd34f461c67eaf2d2e82bcbd31a65ebdab166eba78a2d0b0d17ee4bca3_mini.jpg";"0";"True";"energetico";"//img.sitemercado.com.br/produtos/6afb94cd34f461c67eaf2d2e82bcbd31a65ebdab166eba78a2d0b0d17ee4bca3_full.jpg";"7858473";"Energético Red Horse Garrafa 1L";"";"";"True";"False";"[{'unit': 1, 'price': 5.49, 'quantity': 0, 'quantityStart': 0, 'quantityVariable': 0}]";"Energético";"False";"133289";"0";"bebidas";"126";"";"0";"4";"21";"Isotônicos e Energéticos";"//img.sitemercado.com.br/departamentos/bebidas_ind.jpg";"isotonicos-e-energeticos";"False";"True";"109";"2019-02-23";"Red Horse"
"0";"False";"1";"False";"";"Kilsen";"0.0";"5.89";"[{'id': 0, 'img': '//img.sitemercado.com.br/produtos/3c49edb29c4d734102a531ecf96ec759e1d90dd9f8451087e27f8ff2c69b9e18_full.jpg', 'thumb': '//img.sitemercado.com.br/produtos/3c49edb29c4d734102a531ecf96ec759e1d90dd9f8451087e27f8ff2c69b9e18_mini.jpg'}]";"33";"0.0";"Bebidas";"energetico-kilsen-red-club-garrafa-1l";"False";"kilsen";"1 Litro";"//img.sitemercado.com.br/produtos/3c49edb29c4d734102a531ecf96ec759e1d90dd9f8451087e27f8ff2c69b9e18_mini.jpg";"0";"True";"energetico";"//img.sitemercado.com.br/produtos/3c49edb29c4d734102a531ecf96ec759e1d90dd9f8451087e27f8ff2c69b9e18_full.jpg";"7827795";"Energético Kilsen Red Club Garrafa 1L";"";"";"True";"False";"[{'unit': 1, 'price': 5.89, 'quantity': 0, 'quantityStart': 0, 'quantityVariable': 0}]";"Energético";"False";"132961";"0";"bebidas";"126";"";"0";"4";"21";"Isotônicos e Energéticos";"//img.sitemercado.com.br/departamentos/bebidas_ind.jpg";"isotonicos-e-energeticos";"False";"True";"87";"2019-02-23";"Kilsen"
"0";"False";"1";"False";"";"Crazy Cow";"0.0";"6.99";"[{'id': 0, 'img': '//img.sitemercado.com.br/produtos/8ce75b07b83c0a7d22aada203b92e26b5257b13b4768afac72b9c183914e6d93_full.jpg', 'thumb': '//img.sitemercado.com.br/produtos/8ce75b07b83c0a7d22aada203b92e26b5257b13b4768afac72b9c183914e6d93_mini.jpg'}]";"34";"0.0";"Bebidas";"energetico-crazy-cow-garrafa-1l";"False";"crazy-cow";"1 Litro";"//img.sitemercado.com.br/produtos/8ce75b07b83c0a7d22aada203b92e26b5257b13b4768afac72b9c183914e6d93_mini.jpg";"0";"True";"energetico";"//img.sitemercado.com.br/produtos/8ce75b07b83c0a7d22aada203b92e26b5257b13b4768afac72b9c183914e6d93_full.jpg";"7932943";"Energético Crazy Cow Garrafa 1L";"";"";"True";"False";"[{'unit': 1, 'price': 6.99, 'quantity': 0, 'quantityStart': 0, 'quantityVariable': 0}]";"Energético";"False";"133987";"0";"bebidas";"126";"";"0";"4";"21";"Isotônicos e Energéticos";"//img.sitemercado.com.br/departamentos/bebidas_ind.jpg";"isotonicos-e-energeticos";"False";"True";"86";"2019-02-23";"Crazy Cow"
"0";"False";"1";"False";"";"Kilsen";"0.0";"8.99";"[{'id': 0, 'img': '//img.sitemercado.com.br/produtos/43b239a16c66cfd154ea97806ab43d43322353dae47ea71f3a79ee63d6b83b48_full.jpg', 'thumb': '//img.sitemercado.com.br/produtos/43b239a16c66cfd154ea97806ab43d43322353dae47ea71f3a79ee63d6b83b48_mini.jpg'}]";"35";"0.0";"Bebidas";"energetico-kilsen-red-club-garrafa-1-5l";"False";"kilsen";"1,5 Litro";"//img.sitemercado.com.br/produtos/43b239a16c66cfd154ea97806ab43d43322353dae47ea71f3a79ee63d6b83b48_mini.jpg";"0";"True";"energetico";"//img.sitemercado.com.br/produtos/43b239a16c66cfd154ea97806ab43d43322353dae47ea71f3a79ee63d6b83b48_full.jpg";"7858360";"Energético Kilsen Red Club Garrafa 1,5L";"";"";"True";"False";"[{'unit': 1, 'price': 8.99, 'quantity': 0, 'quantityStart': 0, 'quantityVariable': 0}]";"Energético";"False";"133256";"0";"bebidas";"126";"";"0";"4";"21";"Isotônicos e Energéticos";"//img.sitemercado.com.br/departamentos/bebidas_ind.jpg";"isotonicos-e-energeticos";"False";"True";"95";"2019-02-23";"Kilsen"
