"quantityMinimumPromotion";"is_notification";"unit";"isAds";"description";"title";"totalValue";"preco";"images";"relevance";"price_old";"department";"url";"isWeightVariable";"brandUrl";"weight";"image";"quantity";"isDelivery";"subCategoryUrl";"imageFull";"idLojaProduto";"excerpt";"discount";"ads";"isRemoval";"priceExclusive";"prices";"subCategory";"isRupture";"idProduct";"observableType";"departmentUrl";"idSubCategory";"video";"format";"idDepartament";"idCategory";"category";"imageError";"categoryUrl";"is_favorite";"isSale";"quantityStock";"dt_preco";"brand"
"0";"False";"1";"False";"";"Sanremo";"0.0";"6.99";"[{'id': 0, 'img': '//img.sitemercado.com.br/produtos/a28c71fae831dd215871546193056818b7549774a6678a1936dc08eec4152eec_full.jpg', 'thumb': '//img.sitemercado.com.br/produtos/a28c71fae831dd215871546193056818b7549774a6678a1936dc08eec4152eec_mini.jpg'}]";"0";"0.0";"Utensílios para o Lar";"cesta-empilhavel-sanremo-1-6l-ref-884-3-1-unidade";"False";"sanremo";"1 unidade";"//img.sitemercado.com.br/produtos/a28c71fae831dd215871546193056818b7549774a6678a1936dc08eec4152eec_mini.jpg";"0";"True";"utensilios-diversos";"//img.sitemercado.com.br/produtos/a28c71fae831dd215871546193056818b7549774a6678a1936dc08eec4152eec_full.jpg";"17385715";"Cesta Empilhavel Sanremo 1,6L Ref 884/3 1 Unidade";"";"";"True";"False";"[{'unit': 1, 'price': 6.99, 'quantity': 0, 'quantityStart': 0, 'quantityVariable': 0}]";"Utensílios Diversos";"False";"94568";"0";"utensilios-para-o-lar";"222";"";"0";"18";"79";"Casa em Geral";"//img.sitemercado.com.br/departamentos/utensilios-para-o-lar_ind.jpg";"casa-em-geral";"False";"True";"11";"2019-02-28";"Sanremo"
"0";"False";"1";"False";"";"Burberry";"0.0";"21.99";"[{'id': 0, 'img': '//img.sitemercado.com.br/produtos/b5c8bec2133e6460064d77a38d1e8d186dd0c6c551e72299de7abb3346dd560c_full.jpg', 'thumb': '//img.sitemercado.com.br/produtos/b5c8bec2133e6460064d77a38d1e8d186dd0c6c551e72299de7abb3346dd560c_mini.jpg'}]";"1";"0.0";"Utensílios para o Lar";"guarda-chuva-automatico-portaria-cabo-curvo-xadrez-burberry-embalagem-1un";"False";"burberry";"1 un";"//img.sitemercado.com.br/produtos/b5c8bec2133e6460064d77a38d1e8d186dd0c6c551e72299de7abb3346dd560c_mini.jpg";"0";"True";"utensilios-diversos";"//img.sitemercado.com.br/produtos/b5c8bec2133e6460064d77a38d1e8d186dd0c6c551e72299de7abb3346dd560c_full.jpg";"6284306";"Guarda Chuva Automático Portaria Cabo Curvo Xadrez Burberry Embalagem 1Un";"";"";"True";"False";"[{'unit': 1, 'price': 21.99, 'quantity': 0, 'quantityStart': 0, 'quantityVariable': 0}]";"Utensílios Diversos";"False";"112598";"0";"utensilios-para-o-lar";"222";"";"0";"18";"79";"Casa em Geral";"//img.sitemercado.com.br/departamentos/utensilios-para-o-lar_ind.jpg";"casa-em-geral";"False";"True";"5";"2019-02-28";"Burberry"
