"idCategory";"isRupture";"isWeightVariable";"isSale";"priceExclusive";"observableType";"isAds";"brand";"quantityStock";"idProduct";"categoryUrl";"video";"brandUrl";"images";"departmentUrl";"isRemoval";"is_favorite";"prices";"imageError";"imageFull";"subCategory";"description";"relevance";"title";"discount";"price_old";"excerpt";"dt_preco";"url";"unit";"idDepartament";"isDelivery";"format";"ads";"department";"image";"subCategoryUrl";"is_notification";"category";"totalValue";"preco";"idLojaProduto";"quantity";"idSubCategory";"quantityMinimumPromotion";"weight"
"79";"False";"False";"True";"False";"0";"False";"Melitta";"24";"22362";"casa-em-geral";"";"melitta";"[{'id': 0, 'img': '//img.sitemercado.com.br/produtos/4dc3e3432501b8dadc4b041e22c42ed35b3c40ab8f80ce973df026acad3720c4_hero_full.jpg', 'thumb': '//img.sitemercado.com.br/produtos/4dc3e3432501b8dadc4b041e22c42ed35b3c40ab8f80ce973df026acad3720c4_hero_mini.jpg'}, {'id': 0, 'img': '//img.sitemercado.com.br/produtos/4dc3e3432501b8dadc4b041e22c42ed35b3c40ab8f80ce973df026acad3720c4_full.jpg', 'thumb': '//img.sitemercado.com.br/produtos/4dc3e3432501b8dadc4b041e22c42ed35b3c40ab8f80ce973df026acad3720c4_mini.jpg'}, {'id': 0, 'img': '//img.sitemercado.com.br/produtos/4dc3e3432501b8dadc4b041e22c42ed35b3c40ab8f80ce973df026acad3720c4_verso_full.jpg', 'thumb': '//img.sitemercado.com.br/produtos/4dc3e3432501b8dadc4b041e22c42ed35b3c40ab8f80ce973df026acad3720c4_verso_mini.jpg'}, {'id': 0, 'img': '//img.sitemercado.com.br/produtos/4dc3e3432501b8dadc4b041e22c42ed35b3c40ab8f80ce973df026acad3720c4_adicional_full.jpg', 'thumb': '//img.sitemercado.com.br/produtos/4dc3e3432501b8dadc4b041e22c42ed35b3c40ab8f80ce973df026acad3720c4_adicional_mini.jpg'}]";"utensilios-para-o-lar";"True";"False";"[{'unit': 1, 'price': 9.49, 'quantity': 0, 'quantityStart': 0, 'quantityVariable': 0}]";"//img.sitemercado.com.br/departamentos/utensilios-para-o-lar_ind.jpg";"//img.sitemercado.com.br/produtos/4dc3e3432501b8dadc4b041e22c42ed35b3c40ab8f80ce973df026acad3720c4_hero_full.jpg";"Utensílios Diversos";"";"0";"Melitta";"";"0.0";"Suporte para Filtro Melitta 102 1Un";"2019-03-02";"suporte-para-filtro-melitta-102-1un";"1";"18";"True";"0";"";"Utensílios para o Lar";"//img.sitemercado.com.br/produtos/4dc3e3432501b8dadc4b041e22c42ed35b3c40ab8f80ce973df026acad3720c4_hero_mini.jpg";"utensilios-diversos";"False";"Casa em Geral";"0.0";"9.49";"6273810";"0";"222";"0";"1 un"
"79";"False";"False";"True";"False";"0";"False";"Sanremo";"5";"94568";"casa-em-geral";"";"sanremo";"[{'id': 0, 'img': '//img.sitemercado.com.br/produtos/a28c71fae831dd215871546193056818b7549774a6678a1936dc08eec4152eec_full.jpg', 'thumb': '//img.sitemercado.com.br/produtos/a28c71fae831dd215871546193056818b7549774a6678a1936dc08eec4152eec_mini.jpg'}]";"utensilios-para-o-lar";"True";"False";"[{'unit': 1, 'price': 6.99, 'quantity': 0, 'quantityStart': 0, 'quantityVariable': 0}]";"//img.sitemercado.com.br/departamentos/utensilios-para-o-lar_ind.jpg";"//img.sitemercado.com.br/produtos/a28c71fae831dd215871546193056818b7549774a6678a1936dc08eec4152eec_full.jpg";"Utensílios Diversos";"";"1";"Sanremo";"";"0.0";"Cesta Empilhavel Sanremo 1,6L Ref 884/3 1 Unidade";"2019-03-02";"cesta-empilhavel-sanremo-1-6l-ref-884-3-1-unidade";"1";"18";"True";"0";"";"Utensílios para o Lar";"//img.sitemercado.com.br/produtos/a28c71fae831dd215871546193056818b7549774a6678a1936dc08eec4152eec_mini.jpg";"utensilios-diversos";"False";"Casa em Geral";"0.0";"6.99";"17385715";"0";"222";"0";"1 unidade"
"79";"False";"False";"True";"False";"0";"False";"Burberry";"5";"112598";"casa-em-geral";"";"burberry";"[{'id': 0, 'img': '//img.sitemercado.com.br/produtos/b5c8bec2133e6460064d77a38d1e8d186dd0c6c551e72299de7abb3346dd560c_full.jpg', 'thumb': '//img.sitemercado.com.br/produtos/b5c8bec2133e6460064d77a38d1e8d186dd0c6c551e72299de7abb3346dd560c_mini.jpg'}]";"utensilios-para-o-lar";"True";"False";"[{'unit': 1, 'price': 21.99, 'quantity': 0, 'quantityStart': 0, 'quantityVariable': 0}]";"//img.sitemercado.com.br/departamentos/utensilios-para-o-lar_ind.jpg";"//img.sitemercado.com.br/produtos/b5c8bec2133e6460064d77a38d1e8d186dd0c6c551e72299de7abb3346dd560c_full.jpg";"Utensílios Diversos";"";"2";"Burberry";"";"0.0";"Guarda Chuva Automático Portaria Cabo Curvo Xadrez Burberry Embalagem 1Un";"2019-03-02";"guarda-chuva-automatico-portaria-cabo-curvo-xadrez-burberry-embalagem-1un";"1";"18";"True";"0";"";"Utensílios para o Lar";"//img.sitemercado.com.br/produtos/b5c8bec2133e6460064d77a38d1e8d186dd0c6c551e72299de7abb3346dd560c_mini.jpg";"utensilios-diversos";"False";"Casa em Geral";"0.0";"21.99";"6284306";"0";"222";"0";"1 un"
